<?xml version="1.0" encoding="UTF-8" standalone="no"?>
<!DOCTYPE svg PUBLIC "-//W3C//DTD SVG 1.1//EN"
 "http://www.w3.org/Graphics/SVG/1.1/DTD/svg11.dtd">
<!-- Generated by graphviz version 2.40.1 (20161225.0304)
 -->
<!-- Title: dependencies Pages: 1 -->
<svg width="3248pt" height="284pt"
 viewBox="0.00 0.00 3248.00 284.00" xmlns="http://www.w3.org/2000/svg" xmlns:xlink="http://www.w3.org/1999/xlink">
<g id="graph0" class="graph" transform="scale(1 1) rotate(0) translate(4 280)">
<title>dependencies</title>
<polygon fill="#ffffff" stroke="transparent" points="-4,4 -4,-280 3244,-280 3244,4 -4,4"/>
<text text-anchor="start" x="1599.0091" y="-42.4" font-family="sans-serif" font-weight="bold" font-size="14.00" fill="#000000">Legend</text>
<polygon fill="#ffffb3" stroke="transparent" points="1386,-10 1386,-30 1406,-30 1406,-10 1386,-10"/>
<text text-anchor="start" x="1409.629" y="-15.4" font-family="sans-serif" font-size="14.00" fill="#000000"> &#160;Declarations</text>
<polygon fill="#8dd3c7" stroke="transparent" points="1499,-10 1499,-30 1519,-30 1519,-10 1499,-10"/>
<text text-anchor="start" x="1522.7251" y="-15.4" font-family="sans-serif" font-size="14.00" fill="#000000"> &#160;Module</text>
<polygon fill="#80b1d3" stroke="transparent" points="1585,-10 1585,-30 1605,-30 1605,-10 1585,-10"/>
<text text-anchor="start" x="1608.7812" y="-15.4" font-family="sans-serif" font-size="14.00" fill="#000000"> &#160;Bootstrap</text>
<polygon fill="#fdb462" stroke="transparent" points="1682,-10 1682,-30 1702,-30 1702,-10 1682,-10"/>
<text text-anchor="start" x="1705.6732" y="-15.4" font-family="sans-serif" font-size="14.00" fill="#000000"> &#160;Providers</text>
<polygon fill="#fb8072" stroke="transparent" points="1778,-10 1778,-30 1798,-30 1798,-10 1778,-10"/>
<text text-anchor="start" x="1801.7258" y="-15.4" font-family="sans-serif" font-size="14.00" fill="#000000"> &#160;Exports</text>
<g id="clust1" class="cluster">
<title>cluster_AppModule</title>
<polygon fill="none" stroke="#000000" stroke-dasharray="1,5" points="8,-70 8,-268 3232,-268 3232,-70 8,-70"/>
</g>
<g id="clust2" class="cluster">
<title>cluster_AppModule_declarations</title>
<polygon fill="none" stroke="#000000" points="3020,-78 3020,-130 3224,-130 3224,-78 3020,-78"/>
</g>
<g id="clust5" class="cluster">
<title>cluster_AppModule_imports</title>
<polygon fill="none" stroke="#000000" points="552,-78 552,-130 3012,-130 3012,-78 552,-78"/>
</g>
<g id="clust7" class="cluster">
<title>cluster_AppModule_bootstrap</title>
<polygon fill="none" stroke="#000000" points="1869,-208 1869,-260 1993,-260 1993,-208 1869,-208"/>
</g>
<g id="clust8" class="cluster">
<title>cluster_AppModule_providers</title>
<polygon fill="none" stroke="#000000" points="16,-78 16,-130 544,-130 544,-78 16,-78"/>
</g>
<!-- AppComponent -->
<g id="node1" class="node">
<title>AppComponent</title>
<polygon fill="#ffffb3" stroke="#000000" points="3215.9399,-122 3110.0601,-122 3110.0601,-86 3215.9399,-86 3215.9399,-122"/>
<text text-anchor="middle" x="3163" y="-99.8" font-family="Times,serif" font-size="14.00" fill="#000000">AppComponent</text>
</g>
<!-- AppModule -->
<g id="node3" class="node">
<title>AppModule</title>
<polygon fill="#8dd3c7" stroke="#000000" points="1972.6571,-187 1969.6571,-191 1948.6571,-191 1945.6571,-187 1889.3429,-187 1889.3429,-151 1972.6571,-151 1972.6571,-187"/>
<text text-anchor="middle" x="1931" y="-164.8" font-family="Times,serif" font-size="14.00" fill="#000000">AppModule</text>
</g>
<!-- AppComponent&#45;&gt;AppModule -->
<g id="edge1" class="edge">
<title>AppComponent&#45;&gt;AppModule</title>
<path fill="none" stroke="#000000" d="M3163,-122.1532C3163,-145.7566 3163,-184 3163,-184 3163,-184 1982.6968,-184 1982.6968,-184"/>
<polygon fill="#000000" stroke="#000000" points="1982.6968,-180.5001 1972.6968,-184 1982.6968,-187.5001 1982.6968,-180.5001"/>
</g>
<!-- OrderBy -->
<g id="node2" class="node">
<title>OrderBy</title>
<polygon fill="#ffffb3" stroke="#000000" points="3092.479,-122 3027.521,-122 3027.521,-86 3092.479,-86 3092.479,-122"/>
<text text-anchor="middle" x="3060" y="-99.8" font-family="Times,serif" font-size="14.00" fill="#000000">OrderBy</text>
</g>
<!-- OrderBy&#45;&gt;AppModule -->
<g id="edge2" class="edge">
<title>OrderBy&#45;&gt;AppModule</title>
<path fill="none" stroke="#000000" d="M3060,-122.0109C3060,-144.4852 3060,-180 3060,-180 3060,-180 1982.8585,-180 1982.8585,-180"/>
<polygon fill="#000000" stroke="#000000" points="1982.8586,-176.5001 1972.8585,-180 1982.8585,-183.5001 1982.8586,-176.5001"/>
</g>
<!-- AppComponent  -->
<g id="node20" class="node">
<title>AppComponent </title>
<polygon fill="#80b1d3" stroke="#000000" points="1985.439,-252 1876.561,-252 1876.561,-216 1985.439,-216 1985.439,-252"/>
<text text-anchor="middle" x="1931" y="-229.8" font-family="Times,serif" font-size="14.00" fill="#000000">AppComponent </text>
</g>
<!-- AppModule&#45;&gt;AppComponent  -->
<g id="edge19" class="edge">
<title>AppModule&#45;&gt;AppComponent </title>
<path fill="none" stroke="#000000" stroke-dasharray="1,5" d="M1931,-187.1061C1931,-187.1061 1931,-205.991 1931,-205.991"/>
<polygon fill="#000000" stroke="#000000" points="1927.5001,-205.9909 1931,-215.991 1934.5001,-205.991 1927.5001,-205.9909"/>
</g>
<!-- ServicesModule -->
<g id="node4" class="node">
<title>ServicesModule</title>
<polygon fill="#8dd3c7" stroke="#000000" points="3004.472,-122 3001.472,-126 2980.472,-126 2977.472,-122 2897.528,-122 2897.528,-86 3004.472,-86 3004.472,-122"/>
<text text-anchor="middle" x="2951" y="-99.8" font-family="Times,serif" font-size="14.00" fill="#000000">ServicesModule</text>
</g>
<!-- ServicesModule&#45;&gt;AppModule -->
<g id="edge3" class="edge">
<title>ServicesModule&#45;&gt;AppModule</title>
<path fill="none" stroke="#000000" d="M2951,-122.0449C2951,-143.6623 2951,-177 2951,-177 2951,-177 1982.8868,-177 1982.8868,-177"/>
<polygon fill="#000000" stroke="#000000" points="1982.8868,-173.5001 1972.8868,-177 1982.8868,-180.5001 1982.8868,-173.5001"/>
</g>
<!-- MaterialDesignModule -->
<g id="node5" class="node">
<title>MaterialDesignModule</title>
<polygon fill="#8dd3c7" stroke="#000000" points="2879.1275,-122 2876.1275,-126 2855.1275,-126 2852.1275,-122 2732.8725,-122 2732.8725,-86 2879.1275,-86 2879.1275,-122"/>
<text text-anchor="middle" x="2806" y="-99.8" font-family="Times,serif" font-size="14.00" fill="#000000">MaterialDesignModule</text>
</g>
<!-- MaterialDesignModule&#45;&gt;AppModule -->
<g id="edge4" class="edge">
<title>MaterialDesignModule&#45;&gt;AppModule</title>
<path fill="none" stroke="#000000" d="M2806,-122.1289C2806,-142.5724 2806,-173 2806,-173 2806,-173 1982.9083,-173 1982.9083,-173"/>
<polygon fill="#000000" stroke="#000000" points="1982.9083,-169.5001 1972.9083,-173 1982.9082,-176.5001 1982.9083,-169.5001"/>
</g>
<!-- BrowserModule -->
<g id="node6" class="node">
<title>BrowserModule</title>
<polygon fill="#8dd3c7" stroke="#000000" points="2714.4734,-122 2711.4734,-126 2690.4734,-126 2687.4734,-122 2607.5266,-122 2607.5266,-86 2714.4734,-86 2714.4734,-122"/>
<text text-anchor="middle" x="2661" y="-99.8" font-family="Times,serif" font-size="14.00" fill="#000000">BrowserModule</text>
</g>
<!-- BrowserModule&#45;&gt;AppModule -->
<g id="edge5" class="edge">
<title>BrowserModule&#45;&gt;AppModule</title>
<path fill="none" stroke="#000000" d="M2661,-122.1061C2661,-141.3391 2661,-169 2661,-169 2661,-169 1982.8699,-169 1982.8699,-169"/>
<polygon fill="#000000" stroke="#000000" points="1982.8699,-165.5001 1972.8699,-169 1982.8699,-172.5001 1982.8699,-165.5001"/>
</g>
<!-- FormsModule -->
<g id="node7" class="node">
<title>FormsModule</title>
<polygon fill="#8dd3c7" stroke="#000000" points="2589.8288,-122 2586.8288,-126 2565.8288,-126 2562.8288,-122 2494.1712,-122 2494.1712,-86 2589.8288,-86 2589.8288,-122"/>
<text text-anchor="middle" x="2542" y="-99.8" font-family="Times,serif" font-size="14.00" fill="#000000">FormsModule</text>
</g>
<!-- FormsModule&#45;&gt;AppModule -->
<g id="edge6" class="edge">
<title>FormsModule&#45;&gt;AppModule</title>
<path fill="none" stroke="#000000" d="M2542,-122.2667C2542,-140.5552 2542,-166 2542,-166 2542,-166 1982.9965,-166 1982.9965,-166"/>
<polygon fill="#000000" stroke="#000000" points="1982.9965,-162.5001 1972.9965,-166 1982.9965,-169.5001 1982.9965,-162.5001"/>
</g>
<!-- ReactiveFormsModule -->
<g id="node8" class="node">
<title>ReactiveFormsModule</title>
<polygon fill="#8dd3c7" stroke="#000000" points="2476.3047,-122 2473.3047,-126 2452.3047,-126 2449.3047,-122 2331.6953,-122 2331.6953,-86 2476.3047,-86 2476.3047,-122"/>
<text text-anchor="middle" x="2404" y="-99.8" font-family="Times,serif" font-size="14.00" fill="#000000">ReactiveFormsModule</text>
</g>
<!-- ReactiveFormsModule&#45;&gt;AppModule -->
<g id="edge7" class="edge">
<title>ReactiveFormsModule&#45;&gt;AppModule</title>
<path fill="none" stroke="#000000" d="M2404,-122.0336C2404,-139.0597 2404,-162 2404,-162 2404,-162 1982.9756,-162 1982.9756,-162"/>
<polygon fill="#000000" stroke="#000000" points="1982.9756,-158.5001 1972.9756,-162 1982.9756,-165.5001 1982.9756,-158.5001"/>
</g>
<!-- HttpClientModule -->
<g id="node9" class="node">
<title>HttpClientModule</title>
<polygon fill="#8dd3c7" stroke="#000000" points="2314.1611,-122 2311.1611,-126 2290.1611,-126 2287.1611,-122 2195.8389,-122 2195.8389,-86 2314.1611,-86 2314.1611,-122"/>
<text text-anchor="middle" x="2255" y="-99.8" font-family="Times,serif" font-size="14.00" fill="#000000">HttpClientModule</text>
</g>
<!-- HttpClientModule&#45;&gt;AppModule -->
<g id="edge8" class="edge">
<title>HttpClientModule&#45;&gt;AppModule</title>
<path fill="none" stroke="#000000" d="M2255,-122.0091C2255,-138.0494 2255,-159 2255,-159 2255,-159 1982.694,-159 1982.694,-159"/>
<polygon fill="#000000" stroke="#000000" points="1982.6941,-155.5001 1972.694,-159 1982.694,-162.5001 1982.6941,-155.5001"/>
</g>
<!-- BrowserAnimationsModule -->
<g id="node10" class="node">
<title>BrowserAnimationsModule</title>
<polygon fill="#8dd3c7" stroke="#000000" points="2178.3019,-122 2175.3019,-126 2154.3019,-126 2151.3019,-122 2005.6981,-122 2005.6981,-86 2178.3019,-86 2178.3019,-122"/>
<text text-anchor="middle" x="2092" y="-99.8" font-family="Times,serif" font-size="14.00" fill="#000000">BrowserAnimationsModule</text>
</g>
<!-- BrowserAnimationsModule&#45;&gt;AppModule -->
<g id="edge9" class="edge">
<title>BrowserAnimationsModule&#45;&gt;AppModule</title>
<path fill="none" stroke="#000000" d="M2092,-122.1243C2092,-136.7832 2092,-155 2092,-155 2092,-155 1982.8806,-155 1982.8806,-155"/>
<polygon fill="#000000" stroke="#000000" points="1982.8806,-151.5001 1972.8806,-155 1982.8805,-158.5001 1982.8806,-151.5001"/>
</g>
<!-- CKEditorModule -->
<g id="node11" class="node">
<title>CKEditorModule</title>
<polygon fill="#8dd3c7" stroke="#000000" points="1987.9874,-122 1984.9874,-126 1963.9874,-126 1960.9874,-122 1874.0126,-122 1874.0126,-86 1987.9874,-86 1987.9874,-122"/>
<text text-anchor="middle" x="1931" y="-99.8" font-family="Times,serif" font-size="14.00" fill="#000000">CKEditorModule</text>
</g>
<!-- CKEditorModule&#45;&gt;AppModule -->
<g id="edge10" class="edge">
<title>CKEditorModule&#45;&gt;AppModule</title>
<path fill="none" stroke="#000000" d="M1931,-122.1061C1931,-122.1061 1931,-140.991 1931,-140.991"/>
<polygon fill="#000000" stroke="#000000" points="1927.5001,-140.9909 1931,-150.991 1934.5001,-140.991 1927.5001,-140.9909"/>
</g>
<!-- FlexLayoutModule -->
<g id="node12" class="node">
<title>FlexLayoutModule</title>
<polygon fill="#8dd3c7" stroke="#000000" points="1856.0954,-122 1853.0954,-126 1832.0954,-126 1829.0954,-122 1731.9046,-122 1731.9046,-86 1856.0954,-86 1856.0954,-122"/>
<text text-anchor="middle" x="1794" y="-99.8" font-family="Times,serif" font-size="14.00" fill="#000000">FlexLayoutModule</text>
</g>
<!-- FlexLayoutModule&#45;&gt;AppModule -->
<g id="edge11" class="edge">
<title>FlexLayoutModule&#45;&gt;AppModule</title>
<path fill="none" stroke="#000000" d="M1794,-122.1243C1794,-136.7832 1794,-155 1794,-155 1794,-155 1879.1511,-155 1879.1511,-155"/>
<polygon fill="#000000" stroke="#000000" points="1879.1511,-158.5001 1889.1511,-155 1879.151,-151.5001 1879.1511,-158.5001"/>
</g>
<!-- ServiceWorkerModule.register(args) -->
<g id="node13" class="node">
<title>ServiceWorkerModule.register(args)</title>
<polygon fill="#8dd3c7" stroke="#000000" points="1714.3954,-122 1711.3954,-126 1690.3954,-126 1687.3954,-122 1491.6046,-122 1491.6046,-86 1714.3954,-86 1714.3954,-122"/>
<text text-anchor="middle" x="1603" y="-99.8" font-family="Times,serif" font-size="14.00" fill="#000000">ServiceWorkerModule.register(args)</text>
</g>
<!-- ServiceWorkerModule.register(args)&#45;&gt;AppModule -->
<g id="edge12" class="edge">
<title>ServiceWorkerModule.register(args)&#45;&gt;AppModule</title>
<path fill="none" stroke="#000000" d="M1603,-122.0091C1603,-138.0494 1603,-159 1603,-159 1603,-159 1879.1254,-159 1879.1254,-159"/>
<polygon fill="#000000" stroke="#000000" points="1879.1254,-162.5001 1889.1254,-159 1879.1254,-155.5001 1879.1254,-162.5001"/>
</g>
<!-- DragulaModule.forRoot() -->
<g id="node14" class="node">
<title>DragulaModule.forRoot()</title>
<polygon fill="#8dd3c7" stroke="#000000" points="1473.5064,-122 1470.5064,-126 1449.5064,-126 1446.5064,-122 1312.4936,-122 1312.4936,-86 1473.5064,-86 1473.5064,-122"/>
<text text-anchor="middle" x="1393" y="-99.8" font-family="Times,serif" font-size="14.00" fill="#000000">DragulaModule.forRoot()</text>
</g>
<!-- DragulaModule.forRoot()&#45;&gt;AppModule -->
<g id="edge13" class="edge">
<title>DragulaModule.forRoot()&#45;&gt;AppModule</title>
<path fill="none" stroke="#000000" d="M1393,-122.0336C1393,-139.0597 1393,-162 1393,-162 1393,-162 1879.2317,-162 1879.2317,-162"/>
<polygon fill="#000000" stroke="#000000" points="1879.2318,-165.5001 1889.2317,-162 1879.2317,-158.5001 1879.2318,-165.5001"/>
</g>
<!-- ScrollToModule.forRoot() -->
<g id="node15" class="node">
<title>ScrollToModule.forRoot()</title>
<polygon fill="#8dd3c7" stroke="#000000" points="1294.411,-122 1291.411,-126 1270.411,-126 1267.411,-122 1129.589,-122 1129.589,-86 1294.411,-86 1294.411,-122"/>
<text text-anchor="middle" x="1212" y="-99.8" font-family="Times,serif" font-size="14.00" fill="#000000">ScrollToModule.forRoot()</text>
</g>
<!-- ScrollToModule.forRoot()&#45;&gt;AppModule -->
<g id="edge14" class="edge">
<title>ScrollToModule.forRoot()&#45;&gt;AppModule</title>
<path fill="none" stroke="#000000" d="M1212,-122.2667C1212,-140.5552 1212,-166 1212,-166 1212,-166 1879.2357,-166 1879.2357,-166"/>
<polygon fill="#000000" stroke="#000000" points="1879.2358,-169.5001 1889.2357,-166 1879.2357,-162.5001 1879.2358,-169.5001"/>
</g>
<!-- RouterModule.forRoot(args) -->
<g id="node16" class="node">
<title>RouterModule.forRoot(args)</title>
<polygon fill="#8dd3c7" stroke="#000000" points="1111.8419,-122 1108.8419,-126 1087.8419,-126 1084.8419,-122 934.1581,-122 934.1581,-86 1111.8419,-86 1111.8419,-122"/>
<text text-anchor="middle" x="1023" y="-99.8" font-family="Times,serif" font-size="14.00" fill="#000000">RouterModule.forRoot(args)</text>
</g>
<!-- RouterModule.forRoot(args)&#45;&gt;AppModule -->
<g id="edge15" class="edge">
<title>RouterModule.forRoot(args)&#45;&gt;AppModule</title>
<path fill="none" stroke="#000000" d="M1023,-122.1061C1023,-141.3391 1023,-169 1023,-169 1023,-169 1879.3265,-169 1879.3265,-169"/>
<polygon fill="#000000" stroke="#000000" points="1879.3265,-172.5001 1889.3265,-169 1879.3264,-165.5001 1879.3265,-172.5001"/>
</g>
<!-- PagesModule -->
<g id="node17" class="node">
<title>PagesModule</title>
<polygon fill="#8dd3c7" stroke="#000000" points="916.2064,-122 913.2064,-126 892.2064,-126 889.2064,-122 823.7936,-122 823.7936,-86 916.2064,-86 916.2064,-122"/>
<text text-anchor="middle" x="870" y="-99.8" font-family="Times,serif" font-size="14.00" fill="#000000">PagesModule</text>
</g>
<!-- PagesModule&#45;&gt;AppModule -->
<g id="edge16" class="edge">
<title>PagesModule&#45;&gt;AppModule</title>
<path fill="none" stroke="#000000" d="M870,-122.1289C870,-142.5724 870,-173 870,-173 870,-173 1879.0808,-173 1879.0808,-173"/>
<polygon fill="#000000" stroke="#000000" points="1879.0808,-176.5001 1889.0808,-173 1879.0807,-169.5001 1879.0808,-176.5001"/>
</g>
<!-- SharedModule -->
<g id="node18" class="node">
<title>SharedModule</title>
<polygon fill="#8dd3c7" stroke="#000000" points="806.4231,-122 803.4231,-126 782.4231,-126 779.4231,-122 707.5769,-122 707.5769,-86 806.4231,-86 806.4231,-122"/>
<text text-anchor="middle" x="757" y="-99.8" font-family="Times,serif" font-size="14.00" fill="#000000">SharedModule</text>
</g>
<!-- SharedModule&#45;&gt;AppModule -->
<g id="edge17" class="edge">
<title>SharedModule&#45;&gt;AppModule</title>
<path fill="none" stroke="#000000" d="M757,-122.0449C757,-143.6623 757,-177 757,-177 757,-177 1879.2167,-177 1879.2167,-177"/>
<polygon fill="#000000" stroke="#000000" points="1879.2168,-180.5001 1889.2167,-177 1879.2167,-173.5001 1879.2168,-180.5001"/>
</g>
<!-- LoginSigninModule -->
<g id="node19" class="node">
<title>LoginSigninModule</title>
<polygon fill="#8dd3c7" stroke="#000000" points="689.5576,-122 686.5576,-126 665.5576,-126 662.5576,-122 560.4424,-122 560.4424,-86 689.5576,-86 689.5576,-122"/>
<text text-anchor="middle" x="625" y="-99.8" font-family="Times,serif" font-size="14.00" fill="#000000">LoginSigninModule</text>
</g>
<!-- LoginSigninModule&#45;&gt;AppModule -->
<g id="edge18" class="edge">
<title>LoginSigninModule&#45;&gt;AppModule</title>
<path fill="none" stroke="#000000" d="M625,-122.0109C625,-144.4852 625,-180 625,-180 625,-180 1879.0262,-180 1879.0262,-180"/>
<polygon fill="#000000" stroke="#000000" points="1879.0262,-183.5001 1889.0262,-180 1879.0262,-176.5001 1879.0262,-183.5001"/>
</g>
<!-- { provide: LocationStrategy, useClass: HashLocationStrategy } -->
<g id="node21" class="node">
<title>{ provide: LocationStrategy, useClass: HashLocationStrategy }</title>
<ellipse fill="#fdb462" stroke="#000000" cx="280" cy="-104" rx="256.1093" ry="18"/>
<text text-anchor="middle" x="280" y="-99.8" font-family="Times,serif" font-size="14.00" fill="#000000">{ provide: LocationStrategy, useClass: HashLocationStrategy }</text>
</g>
<!-- { provide: LocationStrategy, useClass: HashLocationStrategy }&#45;&gt;AppModule -->
<g id="edge20" class="edge">
<title>{ provide: LocationStrategy, useClass: HashLocationStrategy }&#45;&gt;AppModule</title>
<path fill="none" stroke="#000000" d="M280,-122.1532C280,-145.7566 280,-184 280,-184 280,-184 1878.9471,-184 1878.9471,-184"/>
<polygon fill="#000000" stroke="#000000" points="1878.9471,-187.5001 1888.9471,-184 1878.947,-180.5001 1878.9471,-187.5001"/>
</g>
</g>
</svg>
