<?xml version="1.0" encoding="UTF-8" standalone="no"?>
<!DOCTYPE svg PUBLIC "-//W3C//DTD SVG 1.1//EN"
 "http://www.w3.org/Graphics/SVG/1.1/DTD/svg11.dtd">
<!-- Generated by graphviz version 2.40.1 (20161225.0304)
 -->
<!-- Title: dependencies Pages: 1 -->
<svg width="948pt" height="211pt"
 viewBox="0.00 0.00 948.00 211.00" xmlns="http://www.w3.org/2000/svg" xmlns:xlink="http://www.w3.org/1999/xlink">
<g id="graph0" class="graph" transform="scale(1 1) rotate(0) translate(4 207)">
<title>dependencies</title>
<polygon fill="#ffffff" stroke="transparent" points="-4,4 -4,-207 944,-207 944,4 -4,4"/>
<text text-anchor="start" x="449.0091" y="-42.4" font-family="sans-serif" font-weight="bold" font-size="14.00" fill="#000000">Legend</text>
<polygon fill="#ffffb3" stroke="transparent" points="236,-10 236,-30 256,-30 256,-10 236,-10"/>
<text text-anchor="start" x="259.629" y="-15.4" font-family="sans-serif" font-size="14.00" fill="#000000"> &#160;Declarations</text>
<polygon fill="#8dd3c7" stroke="transparent" points="349,-10 349,-30 369,-30 369,-10 349,-10"/>
<text text-anchor="start" x="372.7251" y="-15.4" font-family="sans-serif" font-size="14.00" fill="#000000"> &#160;Module</text>
<polygon fill="#80b1d3" stroke="transparent" points="435,-10 435,-30 455,-30 455,-10 435,-10"/>
<text text-anchor="start" x="458.7812" y="-15.4" font-family="sans-serif" font-size="14.00" fill="#000000"> &#160;Bootstrap</text>
<polygon fill="#fdb462" stroke="transparent" points="532,-10 532,-30 552,-30 552,-10 532,-10"/>
<text text-anchor="start" x="555.6732" y="-15.4" font-family="sans-serif" font-size="14.00" fill="#000000"> &#160;Providers</text>
<polygon fill="#fb8072" stroke="transparent" points="628,-10 628,-30 648,-30 648,-10 628,-10"/>
<text text-anchor="start" x="651.7258" y="-15.4" font-family="sans-serif" font-size="14.00" fill="#000000"> &#160;Exports</text>
<g id="clust1" class="cluster">
<title>cluster_ActivityResourcesApplicationsModule</title>
<polygon fill="none" stroke="#000000" stroke-dasharray="1,5" points="8,-70 8,-195 932,-195 932,-70 8,-70"/>
</g>
<g id="clust6" class="cluster">
<title>cluster_ActivityResourcesApplicationsModule_providers</title>
<polygon fill="none" stroke="#000000" points="16,-78 16,-130 924,-130 924,-78 16,-78"/>
</g>
<!-- ApplicationLaunchedComponent -->
<g id="node1" class="node">
<title>ApplicationLaunchedComponent</title>
<ellipse fill="#fdb462" stroke="#000000" cx="776" cy="-104" rx="139.5372" ry="18"/>
<text text-anchor="middle" x="776" y="-99.8" font-family="Times,serif" font-size="14.00" fill="#000000">ApplicationLaunchedComponent</text>
</g>
<!-- ActivityResourcesApplicationsModule -->
<g id="node4" class="node">
<title>ActivityResourcesApplicationsModule</title>
<polygon fill="#8dd3c7" stroke="#000000" points="569.0069,-187 566.0069,-191 545.0069,-191 542.0069,-187 334.9931,-187 334.9931,-151 569.0069,-151 569.0069,-187"/>
<text text-anchor="middle" x="452" y="-164.8" font-family="Times,serif" font-size="14.00" fill="#000000">ActivityResourcesApplicationsModule</text>
</g>
<!-- ApplicationLaunchedComponent&#45;&gt;ActivityResourcesApplicationsModule -->
<g id="edge1" class="edge">
<title>ApplicationLaunchedComponent&#45;&gt;ActivityResourcesApplicationsModule</title>
<path fill="none" stroke="#000000" d="M776,-122.1061C776,-141.3391 776,-169 776,-169 776,-169 579.4295,-169 579.4295,-169"/>
<polygon fill="#000000" stroke="#000000" points="579.4296,-165.5001 569.4295,-169 579.4295,-172.5001 579.4296,-165.5001"/>
</g>
<!-- DialogApplicationLaunchedComponent -->
<g id="node2" class="node">
<title>DialogApplicationLaunchedComponent</title>
<ellipse fill="#fdb462" stroke="#000000" cx="452" cy="-104" rx="166.1015" ry="18"/>
<text text-anchor="middle" x="452" y="-99.8" font-family="Times,serif" font-size="14.00" fill="#000000">DialogApplicationLaunchedComponent</text>
</g>
<!-- DialogApplicationLaunchedComponent&#45;&gt;ActivityResourcesApplicationsModule -->
<g id="edge2" class="edge">
<title>DialogApplicationLaunchedComponent&#45;&gt;ActivityResourcesApplicationsModule</title>
<path fill="none" stroke="#000000" d="M452,-122.1061C452,-122.1061 452,-140.991 452,-140.991"/>
<polygon fill="#000000" stroke="#000000" points="448.5001,-140.9909 452,-150.991 455.5001,-140.991 448.5001,-140.9909"/>
</g>
<!-- ResourceOpenedComponent -->
<g id="node3" class="node">
<title>ResourceOpenedComponent</title>
<ellipse fill="#fdb462" stroke="#000000" cx="146" cy="-104" rx="122.119" ry="18"/>
<text text-anchor="middle" x="146" y="-99.8" font-family="Times,serif" font-size="14.00" fill="#000000">ResourceOpenedComponent</text>
</g>
<!-- ResourceOpenedComponent&#45;&gt;ActivityResourcesApplicationsModule -->
<g id="edge3" class="edge">
<title>ResourceOpenedComponent&#45;&gt;ActivityResourcesApplicationsModule</title>
<path fill="none" stroke="#000000" d="M146,-122.1061C146,-141.3391 146,-169 146,-169 146,-169 324.5676,-169 324.5676,-169"/>
<polygon fill="#000000" stroke="#000000" points="324.5676,-172.5001 334.5676,-169 324.5675,-165.5001 324.5676,-172.5001"/>
</g>
</g>
</svg>
