<?xml version="1.0" encoding="UTF-8" standalone="no"?>
<!DOCTYPE svg PUBLIC "-//W3C//DTD SVG 1.1//EN"
 "http://www.w3.org/Graphics/SVG/1.1/DTD/svg11.dtd">
<!-- Generated by graphviz version 2.40.1 (20161225.0304)
 -->
<!-- Title: dependencies Pages: 1 -->
<svg width="523pt" height="211pt"
 viewBox="0.00 0.00 523.00 211.00" xmlns="http://www.w3.org/2000/svg" xmlns:xlink="http://www.w3.org/1999/xlink">
<g id="graph0" class="graph" transform="scale(1 1) rotate(0) translate(4 207)">
<title>dependencies</title>
<polygon fill="#ffffff" stroke="transparent" points="-4,4 -4,-207 519,-207 519,4 -4,4"/>
<text text-anchor="start" x="236.5091" y="-42.4" font-family="sans-serif" font-weight="bold" font-size="14.00" fill="#000000">Legend</text>
<polygon fill="#ffffb3" stroke="transparent" points="23.5,-10 23.5,-30 43.5,-30 43.5,-10 23.5,-10"/>
<text text-anchor="start" x="47.129" y="-15.4" font-family="sans-serif" font-size="14.00" fill="#000000"> &#160;Declarations</text>
<polygon fill="#8dd3c7" stroke="transparent" points="136.5,-10 136.5,-30 156.5,-30 156.5,-10 136.5,-10"/>
<text text-anchor="start" x="160.2251" y="-15.4" font-family="sans-serif" font-size="14.00" fill="#000000"> &#160;Module</text>
<polygon fill="#80b1d3" stroke="transparent" points="222.5,-10 222.5,-30 242.5,-30 242.5,-10 222.5,-10"/>
<text text-anchor="start" x="246.2812" y="-15.4" font-family="sans-serif" font-size="14.00" fill="#000000"> &#160;Bootstrap</text>
<polygon fill="#fdb462" stroke="transparent" points="319.5,-10 319.5,-30 339.5,-30 339.5,-10 319.5,-10"/>
<text text-anchor="start" x="343.1732" y="-15.4" font-family="sans-serif" font-size="14.00" fill="#000000"> &#160;Providers</text>
<polygon fill="#fb8072" stroke="transparent" points="415.5,-10 415.5,-30 435.5,-30 435.5,-10 415.5,-10"/>
<text text-anchor="start" x="439.2258" y="-15.4" font-family="sans-serif" font-size="14.00" fill="#000000"> &#160;Exports</text>
<g id="clust1" class="cluster">
<title>cluster_ActivityEnvelopModule</title>
<polygon fill="none" stroke="#000000" stroke-dasharray="1,5" points="8,-70 8,-195 507,-195 507,-70 8,-70"/>
</g>
<g id="clust6" class="cluster">
<title>cluster_ActivityEnvelopModule_providers</title>
<polygon fill="none" stroke="#000000" points="16,-78 16,-130 499,-130 499,-78 16,-78"/>
</g>
<!-- ActivityComponentsModule -->
<g id="node1" class="node">
<title>ActivityComponentsModule</title>
<ellipse fill="#fdb462" stroke="#000000" cx="369" cy="-104" rx="121.5935" ry="18"/>
<text text-anchor="middle" x="369" y="-99.8" font-family="Times,serif" font-size="14.00" fill="#000000">ActivityComponentsModule</text>
</g>
<!-- ActivityEnvelopModule -->
<g id="node3" class="node">
<title>ActivityEnvelopModule</title>
<polygon fill="#8dd3c7" stroke="#000000" points="324.0912,-187 321.0912,-191 300.0912,-191 297.0912,-187 171.9088,-187 171.9088,-151 324.0912,-151 324.0912,-187"/>
<text text-anchor="middle" x="248" y="-164.8" font-family="Times,serif" font-size="14.00" fill="#000000">ActivityEnvelopModule</text>
</g>
<!-- ActivityComponentsModule&#45;&gt;ActivityEnvelopModule -->
<g id="edge1" class="edge">
<title>ActivityComponentsModule&#45;&gt;ActivityEnvelopModule</title>
<path fill="none" stroke="#000000" d="M285.7494,-117.1537C285.7494,-117.1537 285.7494,-140.6938 285.7494,-140.6938"/>
<polygon fill="#000000" stroke="#000000" points="282.2495,-140.6938 285.7494,-150.6938 289.2495,-140.6939 282.2495,-140.6938"/>
</g>
<!-- ActivityDialogsModule -->
<g id="node2" class="node">
<title>ActivityDialogsModule</title>
<ellipse fill="#fdb462" stroke="#000000" cx="127" cy="-104" rx="102.5285" ry="18"/>
<text text-anchor="middle" x="127" y="-99.8" font-family="Times,serif" font-size="14.00" fill="#000000">ActivityDialogsModule</text>
</g>
<!-- ActivityDialogsModule&#45;&gt;ActivityEnvelopModule -->
<g id="edge2" class="edge">
<title>ActivityDialogsModule&#45;&gt;ActivityEnvelopModule</title>
<path fill="none" stroke="#000000" d="M200.8592,-116.5327C200.8592,-116.5327 200.8592,-140.8507 200.8592,-140.8507"/>
<polygon fill="#000000" stroke="#000000" points="197.3593,-140.8506 200.8592,-150.8507 204.3593,-140.8507 197.3593,-140.8506"/>
</g>
</g>
</svg>
